{
  "providers": [
    {
      "name": "gas",
      "endpoint": "http://localhost:3000/providers/gas"
    },
    {
      "name": "internet",
      "endpoint": "http://localhost:3000/providers/internet"
    }
  ]
}
